COUNTY,NUMBER
Dobong-gu,22
Dongdaemun-gu,27
Dongjak-gu,21
Eunpyeong-gu,24
Gangbuk-gu,21
Gangdong-gu,25
Gangnam-gu,30
Gangseo-gu,28
Geumcheon-gu,19
Guro-gu,36
Gwanak-gu,24
Gwangjin-gu,20
Jongno-gu,28
Jung-gu,26
Jungnang-gu,24
Mapo-gu,29
Nowon-gu,26
Seocho-gu,29
Seodaemun-gu,22
Seongbuk-gu,24
Seongdong-gu,23
Songpa-gu,31
Yangcheon-gu,27
Yeongdeungpo-gu_1_,26
Yongsan-gu,24
