행정구역별,2013년 화재 발생 건수 (건),2014년 화재 발생 건수 (건),2015년 화재 발생 건수 (건),2016년 화재 발생 건수 (건),2017년 화재 발생 건수 (건)
서울특별시,5646,5815,5921,6443,5978
부산광역시,2323,2026,1973,2199,2609
대구광역시,1538,1767,1817,1739,1612
인천광역시,1575,1818,1875,1790,1608
광주광역시,1110,1010,1006,956,923
대전광역시,1265,1291,1254,974,1059
울산광역시,1192,890,874,928,959
세종특별자치시,194,223,252,300,316
경기도,9049,9675,10333,10147,9799
강원도,2097,2182,2485,2315,2364
충청북도,1345,1316,1373,1379,1554
충청남도,2657,2838,3031,2825,2775
전라북도,1569,1652,1962,1983,1974
전라남도,2480,2620,2647,2454,2963
경상북도,2737,2803,3068,2651,2817
경상남도,3416,3622,3960,3756,4117
제주도,739,587,604,574,751
