행정구역별,2015년 건수 (건),2015년 사망 (명),2015년 재산피해(계) (천원),2015년 공무원 수,2016년 건수 (건),2016년 사망 (명),2016년 재산피해(계) (천원),2016년 공무원 수,2017년 건수 (건),2017년 사망 (명),2017년 재산피해(계) (천원),2017년 공무원 수
전국,"35,384",200,"379,213,444","29,307","34,527",236,"331,451,364","30,217","35,092",289,"458,682,130","34,739"
서울특별시,"5,921",27,"14,337,272",6916,"6,443",40,"14,122,346",6902,"5,978",37,"15,323,890","6,951"
경기도,"10,333",63,"240,336,222",5307,"10,147",70,"188,627,284",5538,"9,799",78,"250,321,443","8,317"
강원도,"2,485",13,"14,723,530",2471,"2,315",20,"12,757,524",2591,"2,364",24,"30,228,041","2,907"
충청북도,"1,373",18,"13,508,677",2243,"1,379",12,"13,912,203",2424,"1,554",41,"30,979,634","1,761"
충청남도,"3,031",17,"17,281,830",1615,"2,825",12,"20,705,376",1617,"2,775",19,"26,479,876","2,708"
전라북도,"1,962",10,"7,538,440",2264,"1,983",17,"9,928,265",2266,"1,974",15,"20,690,454","2,120"
전라남도,"2,647",11,"19,520,216",1985,"2,454",21,"15,448,305",1985,"2,963",19,"24,841,124","2,680"
경상북도,"3,068",18,"17,666,841",2866,"2,651",14,"24,643,788",3024,"2,817",27,"25,093,341","3,656"
경상남도,"3,960",18,"29,979,992",3011,"3,756",29,"25,867,929",3166,"4,117",24,"30,779,725","2,822"
제주도,604,5,"4,320,424",629,574,1,"5,438,344",704,751,5,"3,944,602",817
