<?xml version="1.0" standalone="no"?>
<!DOCTYPE svg PUBLIC "-//W3C//DTD SVG 20010904//EN"
 "http://www.w3.org/TR/2001/REC-SVG-20010904/DTD/svg10.dtd">
<svg version="1.0" xmlns="http://www.w3.org/2000/svg"
 width="250.000000pt" height="284.000000pt" viewBox="0 0 250.000000 284.000000"
 preserveAspectRatio="xMidYMid meet">


<g transform="translate(0.000000,284.000000) scale(0.100000,-0.100000)"
fill="#000000" stroke="none">
<path d="M1213 2795 c-30 -24 -31 -27 -26 -82 5 -46 12 -64 37 -89 17 -17 41
-45 53 -61 18 -24 27 -29 55 -25 30 3 40 -2 81 -45 36 -37 47 -55 47 -81 0
-18 7 -47 16 -63 14 -28 14 -32 -2 -50 -13 -15 -15 -24 -6 -46 6 -16 13 -45
17 -66 l6 -38 -35 7 c-28 5 -37 3 -42 -11 -4 -9 -2 -21 5 -28 16 -16 14 -90
-5 -137 -19 -47 -8 -74 20 -51 13 11 22 8 54 -17 35 -28 40 -29 54 -16 14 14
20 13 64 -8 65 -32 84 -27 84 21 0 27 7 44 25 61 14 13 23 31 21 39 -18 66
-16 98 8 133 20 29 23 43 17 70 -14 60 -39 108 -57 108 -14 0 -16 8 -11 47 4
39 11 52 41 76 30 24 34 32 26 52 -13 34 20 63 55 47 14 -6 25 -10 25 -7 0 2
-13 27 -30 55 -16 28 -30 54 -30 58 1 4 25 27 55 51 30 24 55 47 55 52 0 13
-33 11 -73 -6 -34 -14 -35 -14 -76 25 -23 22 -50 40 -59 40 -10 0 -33 -16 -52
-35 l-33 -34 -28 19 c-15 11 -29 20 -32 20 -3 0 -15 -15 -26 -34 -18 -28 -30
-35 -78 -45 -86 -17 -93 -16 -93 19 0 37 -25 90 -43 90 -6 0 -21 3 -32 5 -12
3 -32 -4 -52 -20z" id="path1"  style=" "/>
<path d="M793 2628 l-31 -52 21 -15 c12 -8 24 -16 26 -17 2 -2 -6 -18 -17 -36
-12 -19 -24 -54 -28 -78 -3 -25 -14 -57 -25 -71 -10 -15 -21 -40 -24 -55 -4
-16 -9 -37 -12 -46 -3 -13 1 -18 15 -18 10 0 39 -15 63 -33 24 -19 51 -32 58
-29 9 3 27 -9 42 -27 26 -32 28 -32 52 -16 22 14 29 14 60 2 22 -10 37 -24 40
-39 10 -37 81 -80 136 -83 40 -1 49 -6 69 -35 12 -18 26 -49 32 -69 10 -39 44
-69 56 -50 7 12 107 3 135 -12 29 -15 43 14 18 37 -17 16 -23 16 -41 5 -20
-12 -24 -11 -45 15 -28 35 -28 35 -3 84 24 48 25 79 3 118 -16 27 -15 30 3 55
14 20 25 26 42 22 27 -7 29 10 5 59 -16 34 -16 37 2 56 15 17 16 24 7 46 -7
13 -12 39 -12 56 0 24 -10 40 -42 70 -45 41 -64 47 -82 23 -10 -14 -19 -6 -59
49 -59 80 -73 89 -104 69 -16 -11 -35 -14 -60 -10 -26 5 -56 0 -96 -15 l-58
-21 -57 56 -57 57 -32 -52z" id="path2"  style=" " />
<path d="M1878 2589 c-24 -9 -26 -13 -16 -35 9 -20 8 -28 -5 -41 -14 -15 -20
-15 -42 -3 -31 17 -40 9 -25 -20 11 -20 8 -26 -28 -59 -41 -37 -62 -91 -36
-91 8 0 23 -18 34 -39 22 -44 39 -151 23 -151 -14 0 -33 -46 -33 -80 0 -40 17
-80 34 -80 8 0 38 -27 67 -60 28 -33 61 -62 73 -66 11 -3 28 -13 37 -20 14
-12 18 -11 34 6 11 12 31 20 49 20 25 0 36 8 54 36 23 36 23 37 7 81 -28 72
-10 115 85 207 43 42 84 76 92 76 7 0 28 27 46 60 33 59 34 60 76 60 29 0 48
6 60 19 16 18 16 20 -14 41 -25 18 -39 21 -73 16 -36 -5 -50 -1 -98 28 -56 34
-58 34 -140 27 l-82 -7 -31 43 c-28 40 -33 43 -75 42 -25 0 -58 -5 -73 -10z" id="path3"  style=" " />
<path d="M650 2532 c0 -53 -2 -60 -25 -70 -15 -7 -25 -20 -25 -33 0 -18 -4
-20 -27 -15 -29 8 -43 -5 -43 -43 0 -20 -4 -22 -22 -16 -61 18 -86 21 -124 13
l-42 -9 -7 -98 c-8 -113 2 -147 39 -137 18 4 38 -11 104 -77 46 -46 80 -86 77
-89 -3 -3 8 -11 25 -18 16 -7 30 -17 30 -23 0 -6 11 0 24 12 19 18 31 21 55
16 27 -6 32 -3 42 19 11 24 17 26 83 26 81 0 92 5 101 42 9 36 -49 117 -83
118 -13 0 -42 15 -65 34 -34 28 -46 32 -61 24 -14 -8 -21 -7 -27 3 -12 19 -11
46 1 54 6 3 10 21 10 39 0 20 8 40 20 51 11 10 22 37 26 64 4 25 15 62 25 82
l18 36 -57 24 c-31 13 -60 26 -64 27 -4 2 -8 -23 -8 -56z" id="path4"  style=" " />
<path d="M258 2260 c-51 -16 -59 -33 -36 -70 20 -31 -21 -66 -85 -74 -48 -6
-54 -10 -76 -48 -20 -36 -21 -42 -8 -50 9 -4 18 -22 22 -38 4 -17 10 -30 15
-30 18 0 40 -33 40 -61 0 -17 5 -29 13 -29 8 0 35 -14 60 -31 37 -24 47 -37
47 -58 0 -27 30 -61 53 -61 6 0 30 11 51 24 38 23 41 23 73 8 32 -15 35 -15
54 5 20 19 20 22 5 52 -18 33 -14 51 10 51 10 0 14 14 14 55 0 37 4 55 12 55
7 0 -19 32 -57 70 -54 54 -75 70 -91 66 -39 -10 -63 30 -66 109 l-3 70 -47
-15z" id="path5"  style=" " />
<path d="M943 2109 c-6 -6 -9 -26 -6 -45 13 -79 -25 -109 -122 -98 -51 6 -52
6 -65 -26 -12 -29 -16 -31 -48 -25 -25 5 -39 2 -52 -10 -18 -16 -18 -18 3 -61
17 -36 19 -50 11 -72 -16 -43 4 -100 42 -120 38 -20 124 -98 124 -112 0 -6 -5
-19 -12 -29 -10 -16 -4 -27 37 -75 27 -31 57 -58 67 -62 29 -9 120 16 114 31
-2 7 8 27 23 45 l27 33 46 -49 46 -49 8 40 c7 37 5 41 -40 82 l-47 42 28 7
c44 11 73 34 94 76 22 43 26 44 57 23 16 -12 27 -13 40 -6 15 8 27 4 56 -15
51 -35 58 -22 12 25 l-37 38 25 48 c34 62 34 91 1 97 -13 3 -33 -1 -44 -8 -17
-12 -23 -11 -49 11 -18 15 -32 39 -36 59 -10 50 -38 81 -77 84 -62 5 -159 64
-159 97 0 14 -29 35 -47 35 -5 0 -14 -5 -20 -11z" id="path6"  style=" " />
<path d="M534 1883 c-4 -21 -11 -43 -16 -49 -13 -17 13 -94 32 -94 8 0 32 -31
53 -70 39 -71 61 -86 86 -57 8 11 5 17 -12 26 -30 16 -49 83 -35 123 8 23 6
37 -11 73 -42 89 -86 110 -97 48z" id="path7"  style=" " />
<path d="M372 1714 c-13 -9 -51 -23 -85 -31 -49 -11 -69 -12 -98 -2 -45 14
-82 4 -74 -20 4 -13 -3 -24 -20 -35 -14 -9 -25 -25 -25 -35 0 -10 -7 -21 -15
-25 -19 -7 -19 -26 0 -26 19 0 10 -57 -14 -83 -14 -17 -14 -22 7 -57 12 -22
22 -50 22 -64 0 -16 6 -26 14 -26 27 0 76 -63 76 -97 0 -39 19 -83 35 -83 21
0 45 -36 45 -66 0 -26 5 -31 40 -40 39 -11 40 -11 65 28 29 43 40 42 50 -2 4
-17 11 -30 17 -30 6 0 8 -13 4 -32 -3 -18 -1 -40 4 -48 7 -12 11 -8 16 16 4
20 15 36 30 43 35 16 68 95 58 141 -5 19 -8 38 -8 42 -1 3 20 23 47 43 30 23
47 44 47 58 1 12 16 39 35 61 l34 38 34 -21 c27 -17 44 -20 79 -15 30 4 48 2
53 -5 5 -9 12 -8 26 5 19 17 18 19 -37 75 -55 56 -57 59 -45 88 12 28 11 31
-21 60 -37 34 -53 38 -62 16 -3 -9 -18 -15 -40 -15 -33 0 -37 4 -77 74 -45 80
-67 94 -105 70 -20 -14 -26 -14 -53 0 -36 19 -32 19 -59 0z" id="path8"  style=" " />
<path d="M661 1322 c-11 -16 -23 -40 -26 -55 -4 -16 -25 -40 -51 -59 -24 -17
-44 -32 -44 -32 0 -1 4 -16 10 -34 12 -44 -23 -135 -62 -164 -31 -22 -36 -38
-12 -38 9 0 22 -7 29 -16 9 -13 16 -14 33 -5 12 6 32 9 44 6 18 -4 27 2 43 28
16 25 29 33 60 37 37 5 42 2 65 -31 40 -58 83 -89 121 -88 19 1 62 -6 95 -15
34 -9 77 -16 94 -16 32 0 33 0 15 20 -16 17 -16 24 -5 48 7 16 12 60 11 108
-2 77 -1 82 23 98 34 22 33 46 -3 80 -16 16 -32 39 -35 52 -4 15 -14 24 -27
24 -23 0 -99 37 -99 48 0 4 -5 14 -10 22 -8 12 -14 10 -39 -14 -30 -29 -31
-29 -51 -11 -18 16 -25 17 -52 7 -26 -9 -36 -8 -69 8 l-38 20 -20 -28z" id="path9"  style=" " />
<path d="M643 930 c-17 -37 -20 -40 -49 -35 -24 4 -44 -2 -78 -22 -38 -24 -45
-33 -46 -60 0 -21 -9 -40 -25 -55 -22 -21 -25 -33 -30 -125 l-5 -101 33 9 c28
8 34 6 53 -16 16 -20 27 -25 45 -20 31 8 54 -16 63 -67 6 -30 12 -38 37 -43
17 -4 32 -5 35 -3 2 3 8 27 13 54 6 29 17 53 27 59 10 5 37 27 61 49 24 21 58
41 75 45 22 5 34 13 36 27 3 24 80 74 113 74 17 0 37 14 62 44 51 61 49 76 -9
76 -25 0 -73 7 -107 16 -33 8 -71 13 -85 9 -18 -4 -34 3 -68 30 -24 20 -51 49
-61 65 -27 46 -66 42 -90 -10z" id="path10"  style=" " />
<path d="M957 655 c-20 -14 -44 -39 -52 -55 -12 -24 -22 -30 -47 -30 -22 0
-43 -11 -74 -40 -24 -22 -48 -40 -53 -40 -5 0 -14 -29 -21 -65 -7 -36 -15 -65
-19 -65 -3 0 -23 4 -43 9 -36 8 -38 7 -38 -14 0 -13 -4 -35 -10 -49 -8 -22 -6
-28 14 -41 13 -9 31 -36 40 -60 10 -24 26 -55 37 -69 19 -25 21 -25 45 -9 14
8 26 14 28 12 1 -2 12 -19 25 -36 14 -21 35 -36 61 -43 22 -6 43 -17 48 -25 7
-13 18 -12 78 9 61 20 74 22 95 11 22 -12 26 -11 52 20 17 21 46 40 77 50 46
15 50 19 50 48 0 45 17 101 39 128 17 21 17 27 5 62 -29 81 -14 97 69 78 27
-6 52 -10 53 -8 2 2 -9 21 -26 43 -34 44 -36 57 -15 74 8 7 12 16 9 21 -9 15
-66 10 -85 -7 -16 -15 -23 -15 -51 -3 -18 7 -50 29 -70 47 l-38 34 -12 -27
c-9 -20 -17 -25 -32 -21 -12 3 -26 6 -32 6 -6 0 -19 18 -29 40 -10 22 -23 40
-29 40 -6 0 -28 -11 -49 -25z" id="path11"  style=" " />
</g>
</svg>
