시설물,충청북도,충청남도,제주도,전라북도,전라남도,울산광역시,세종특별시,부산광역시,대전광역시,대구광역시,경상북도,경상남도,강원도
계,21788,80409,12732,69640,37683,30854,5509,105088,40354,66670,143501,147801,62602
공장,5100,8282,390,3731,3941,2613,611,18302,963,9799,14689,19096,2400
근린생활시설,8158,47344,6079,40452,19151,20089,2597,55270,20111,42252,71198,90965,39685
기숙사,37,141,23,44,230,42,13,50,56,27,122,130,109
노유자시설,843,1720,594,1419,1696,824,115,1743,1281,1498,3293,2803,3395
문화재,138,294,34,252,318,13,10,134,57,48,821,432,139
방송통신시설,39,106,45,131,67,41,12,86,38,50,428,89,170
복합건축물,2094,3752,1801,2944,614,1772,615,10328,14068,6351,7889,8928,3752
수련시설,62,79,54,69,102,12,5,45,12,17,111,109,123
숙박시설,1036,2163,1024,1603,1937,774,68,2050,862,971,2691,3026,2119
아파트,985,1111,665,1151,1082,1741,119,11076,670,1567,2606,3011,1110
업무시설,1282,4193,844,7227,3002,697,388,2735,685,1260,8583,5150,3013
운동시설,184,188,87,191,252,60,13,149,54,80,277,306,224
위락시설,318,1287,121,573,1794,475,37,53,34,129,1096,4487,304
의료시설,101,140,23,190,201,88,6,395,86,151,214,293,93
종교시설,602,1143,206,1180,897,369,69,1143,677,735,1294,1198,959
지하가,83,112,1,56,270,15,6,53,24,45,233,200,282
지하구,13,5,1,8,15,5,1,55,75,31,18,19,12
창고시설,713,8349,740,8419,2114,1224,824,1421,601,1659,27938,7559,4713
