기간	구분	계	일요일	월요일	화요일	수요일	목요일	금요일	토요일
2012	합계	5,724	787	899	777	808	795	821	837
2012	종로구	245	28	42	31	42	36	37	29
2012	중구	196	17	40	29	26	33	25	26
2012	용산구	150	27	24	16	19	17	20	27
2012	성동구	197	25	32	23	29	25	31	32
2012	광진구	217	27	26	31	30	35	33	35
2012	동대문구	188	31	27	21	33	28	29	19
2012	중랑구	200	28	33	29	29	23	27	31
2012	성북구	220	31	36	21	27	29	33	43
2012	강북구	201	29	38	21	25	32	30	26
2012	도봉구	163	24	24	14	25	25	23	28
2012	노원구	234	33	31	30	33	31	37	39
2012	은평구	220	39	32	34	30	30	27	28
2012	서대문구	173	25	30	27	23	21	31	16
2012	마포구	209	20	41	33	25	21	34	35
2012	양천구	209	31	33	39	29	32	15	30
2012	강서구	282	33	42	39	39	46	45	38
2012	구로구	213	26	29	36	29	30	32	31
2012	금천구	164	20	23	32	23	15	24	27
2012	영등포구	252	33	32	35	27	37	42	46
2012	동작구	209	29	36	20	41	29	29	25
2012	관악구	409	73	65	46	62	54	53	56
2012	서초구	230	20	39	32	33	35	35	36
2012	강남구	385	56	60	62	51	57	55	44
2012	송파구	295	43	37	43	38	41	37	56
2012	강동구	263	39	47	33	40	33	37	34
2013	합계	5,646	786	812	744	814	782	839	869
2013	종로구	254	28	50	32	31	38	37	38
2013	중구	190	28	27	33	31	22	24	25
2013	용산구	170	29	25	20	29	25	19	23
2013	성동구	185	23	26	20	25	24	22	45
2013	광진구	214	33	25	25	31	30	29	41
2013	동대문구	206	24	39	24	34	27	31	27
2013	중랑구	158	21	24	17	21	31	25	19
2013	성북구	204	22	25	30	23	25	34	45
2013	강북구	229	30	29	36	32	32	40	30
2013	도봉구	218	38	29	26	31	29	30	35
2013	노원구	260	35	34	33	40	47	39	32
2013	은평구	211	37	20	29	26	35	32	32
2013	서대문구	221	29	28	28	29	33	40	34
2013	마포구	226	39	41	33	24	29	27	33
2013	양천구	233	31	31	25	39	30	44	33
2013	강서구	242	38	25	35	33	31	35	45
2013	구로구	238	38	35	31	39	37	29	29
2013	금천구	144	17	18	24	18	14	27	26
2013	영등포구	219	38	32	28	34	36	21	30
2013	동작구	159	23	20	20	17	21	20	38
2013	관악구	299	40	52	40	47	32	40	48
2013	서초구	216	33	32	29	27	30	33	32
2013	강남구	421	52	67	48	75	56	69	54
2013	송파구	304	40	44	42	46	38	51	43
2013	강동구	225	20	34	36	32	30	41	32
2014	합계	5,815	853	836	772	778	822	887	867
2014	종로구	239	33	33	24	34	35	38	42
2014	중구	233	28	34	27	32	27	43	42
2014	용산구	208	24	29	32	29	27	31	36
2014	성동구	204	26	23	32	25	33	26	39
2014	광진구	244	42	35	35	29	44	38	21
2014	동대문구	221	46	23	24	29	30	32	37
2014	중랑구	193	30	29	25	27	19	23	40
2014	성북구	175	22	17	30	26	24	28	28
2014	강북구	189	34	26	29	26	25	26	23
2014	도봉구	197	25	28	25	23	25	37	34
2014	노원구	252	38	48	28	34	28	36	40
2014	은평구	198	27	23	25	29	30	31	33
2014	서대문구	212	21	33	25	34	34	23	42
2014	마포구	250	26	36	42	31	31	40	44
2014	양천구	209	33	29	31	31	32	27	26
2014	강서구	306	50	42	39	43	50	43	39
2014	구로구	180	32	31	32	28	16	21	20
2014	금천구	126	12	17	17	22	15	25	18
2014	영등포구	239	35	43	32	23	33	38	35
2014	동작구	178	23	25	15	17	37	30	31
2014	관악구	262	39	36	23	37	38	57	32
2014	서초구	331	57	54	39	40	58	42	41
2014	강남구	427	60	70	60	56	58	62	61
2014	송파구	302	50	43	50	43	42	41	33
2014	강동구	240	40	29	31	30	31	49	30
2015	합계	5,921	787	870	862	828	851	896	827
2015	종로구	260	30	40	30	53	36	41	30
2015	중구	237	29	31	35	39	38	40	25
2015	용산구	187	32	31	21	23	33	24	23
2015	성동구	197	24	28	38	22	28	31	26
2015	광진구	241	38	32	31	41	27	39	33
2015	동대문구	223	24	26	41	28	45	31	28
2015	중랑구	175	23	31	27	22	26	19	27
2015	성북구	151	26	25	24	15	18	21	22
2015	강북구	178	19	28	17	23	28	32	31
2015	도봉구	188	28	20	27	25	27	33	28
2015	노원구	241	23	35	32	36	33	42	40
2015	은평구	244	26	40	42	37	35	31	33
2015	서대문구	215	26	31	35	28	31	30	34
2015	마포구	251	38	30	29	36	43	34	41
2015	양천구	218	28	31	36	26	29	39	29
2015	강서구	301	44	51	47	35	34	43	47
2015	구로구	221	33	33	27	33	25	37	33
2015	금천구	131	11	25	14	17	14	25	25
2015	영등포구	243	39	29	29	38	38	40	30
2015	동작구	185	21	33	27	29	24	23	28
2015	관악구	285	48	32	43	40	44	46	32
2015	서초구	303	46	49	44	38	39	46	41
2015	강남구	504	63	83	80	64	72	67	75
2015	송파구	278	37	43	40	50	34	45	29
2015	강동구	264	31	33	46	30	50	37	37
2016	합계	6,443	858	854	945	944	948	967	927
2016	종로구	276	34	33	40	34	45	57	33
2016	중구	210	22	28	32	37	37	29	25
2016	용산구	197	31	23	26	29	29	28	31
2016	성동구	182	27	28	20	25	18	31	33
2016	광진구	215	29	30	29	31	36	31	29
2016	동대문구	236	32	37	37	31	34	39	26
2016	중랑구	195	31	31	26	29	33	22	23
2016	성북구	194	31	22	24	21	33	33	30
2016	강북구	170	23	18	25	28	31	23	22
2016	도봉구	222	30	35	28	36	31	31	31
2016	노원구	278	41	34	44	48	33	41	37
2016	은평구	217	35	26	34	33	25	28	36
2016	서대문구	227	24	36	35	31	35	36	30
2016	마포구	283	27	32	46	47	41	40	50
2016	양천구	229	30	35	33	31	37	33	30
2016	강서구	372	53	46	46	58	56	55	58
2016	구로구	247	35	30	40	50	32	31	29
2016	금천구	173	20	29	21	25	25	26	27
2016	영등포구	280	38	38	42	53	35	27	47
2016	동작구	215	33	25	27	28	35	35	32
2016	관악구	314	39	37	48	35	56	52	47
2016	서초구	286	39	39	44	34	40	55	35
2016	강남구	589	78	71	103	77	83	90	87
2016	송파구	325	38	52	51	41	42	48	53
2016	강동구	311	38	39	44	52	46	46	46
2017	합계	5,978	887	856	843	818	847	857	870
2017	종로구	234	29	36	32	29	37	32	39
2017	중구	198	26	28	27	26	28	35	28
2017	용산구	167	18	33	22	19	25	20	30
2017	성동구	197	24	27	26	29	31	30	30
2017	광진구	200	30	30	28	28	23	25	36
2017	동대문구	200	25	26	26	36	21	35	31
2017	중랑구	196	29	31	27	23	26	27	33
2017	성북구	183	33	21	28	27	25	18	31
2017	강북구	186	32	32	21	24	24	22	31
2017	도봉구	192	29	22	34	24	31	31	21
2017	노원구	279	43	45	37	35	46	33	40
2017	은평구	159	27	16	21	16	31	23	25
2017	서대문구	232	40	29	33	28	31	38	33
2017	마포구	235	22	38	32	35	35	39	34
2017	양천구	244	41	28	25	35	44	41	30
2017	강서구	364	52	55	50	62	37	53	55
2017	구로구	260	40	45	38	29	39	35	34
2017	금천구	174	25	25	22	30	25	20	27
2017	영등포구	239	40	33	40	29	28	29	40
2017	동작구	222	34	36	34	23	29	35	31
2017	관악구	286	42	35	34	49	40	45	41
2017	서초구	242	33	32	33	43	36	36	29
2017	강남구	502	80	77	74	65	69	79	58
2017	송파구	318	56	38	51	51	47	41	34
2017	강동구	269	37	38	48	23	39	35	49
2018	합계	6,368	864	941	827	903	900	957	976
2018	종로구	254	31	40	38	37	36	38	34
2018	중구	275	31	48	31	45	38	35	47
2018	용산구	211	32	33	20	34	34	23	35
2018	성동구	212	30	29	31	40	21	27	34
2018	광진구	203	27	35	29	22	27	26	37
2018	동대문구	203	24	22	23	35	33	29	37
2018	중랑구	254	37	43	35	40	32	34	33
2018	성북구	215	34	28	27	25	22	45	34
2018	강북구	203	20	32	27	27	36	32	29
2018	도봉구	237	26	48	29	29	28	41	36
2018	노원구	229	31	32	28	32	36	32	38
2018	은평구	214	29	33	33	31	22	33	33
2018	서대문구	229	32	36	21	22	37	41	40
2018	마포구	254	33	28	37	38	39	41	38
2018	양천구	219	38	21	35	27	31	27	40
2018	강서구	383	56	61	50	55	50	52	59
2018	구로구	263	39	39	40	42	26	37	40
2018	금천구	168	17	30	18	25	26	28	24
2018	영등포구	258	36	39	28	35	42	44	34
2018	동작구	205	37	30	20	30	32	32	24
2018	관악구	337	47	53	45	48	53	51	40
2018	서초구	242	29	38	35	34	33	33	40
2018	강남구	436	43	56	77	59	56	83	62
2018	송파구	340	52	45	35	50	56	47	55
2018	강동구	324	53	42	35	41	54	46	53